2019-03-06 00:00:00

;;;;Devizy;;;Valuty
Země;Množství;Měna;Změna;Nákup;Prodej;Střed;Nákup;Prodej;Střed
Austrálie;1;AUD;-0.4;15,553;16,357;15,955;0,000;0,000;0,000
Čína;1;CNY;0;3,171;3,576;3,374;0,000;0,000;0,000
Dánsko;1;DKK;0;3,348;3,521;3,434;3,348;3,521;3,434
EMS;1;EUR;0;24,983;26,266;25,624;24,983;26,266;25,624
Chorvatsko;1;HRK;0;3,364;3,539;3,451;0,000;0,000;0,000
Japonsko;100;JPY;0.4;19,782;20,807;20,294;0,000;0,000;0,000
Kanada;1;CAD;-0.1;16,538;17,393;16,965;0,000;0,000;0,000
Maďarsko;100;HUF;0;7,914;8,325;8,120;0,000;0,000;0,000
Norsko;1;NOK;0;2,546;2,678;2,612;2,546;2,678;2,612
Polsko;1;PLN;-0.1;5,807;6,109;5,958;0,000;0,000;0,000
Rumunsko;1;RON;0;5,261;5,536;5,398;0,000;0,000;0,000
Rusko;100;RUB;0;32,356;36,526;34,441;0,000;0,000;0,000
Švédsko;1;SEK;0.5;2,372;2,495;2,433;2,372;2,495;2,433
Švýcarsko;1;CHF;-0.3;22,003;23,127;22,565;22,003;23,127;22,565
Turecko;1;TRY;0.1;3,948;4,465;4,206;0,000;0,000;0,000
USA;1;USD;0.3;22,112;23,253;22,682;22,112;23,253;22,682
Velká Británie;1;GBP;0.1;29,055;30,554;29,805;29,055;30,554;29,805